C:\work\Right-on\ロイヤリティ\Royality\src\WebUI\wwwroot\scripts\build\Royality_kaikei.js
C:\work\Right-on\ロイヤリティ\Royality\src\WebUI\wwwroot\scripts\build\Royality_kaikei.js.map
C:\work\Right-on\ロイヤリティ\Royality\src\WebUI\wwwroot\scripts\build\_Constants.js
C:\work\Right-on\ロイヤリティ\Royality\src\WebUI\wwwroot\scripts\build\_Constants.js.map
C:\work\Right-on\ロイヤリティ\Royality\src\WebUI\wwwroot\scripts\build\hinban_touroku.js
C:\work\Right-on\ロイヤリティ\Royality\src\WebUI\wwwroot\scripts\build\hinban_touroku.js.map
C:\work\Right-on\ロイヤリティ\Royality\src\WebUI\wwwroot\scripts\build\denpyo_Detail.js
C:\work\Right-on\ロイヤリティ\Royality\src\WebUI\wwwroot\scripts\build\denpyo_Detail.js.map
C:\work\Right-on\ロイヤリティ\Royality\src\WebUI\wwwroot\scripts\build\denpyo_list.js
C:\work\Right-on\ロイヤリティ\Royality\src\WebUI\wwwroot\scripts\build\denpyo_list.js.map
C:\work\Right-on\ロイヤリティ\Royality\src\WebUI\wwwroot\scripts\build\site.js
C:\work\Right-on\ロイヤリティ\Royality\src\WebUI\wwwroot\scripts\build\site.js.map
